Get model predictions and plot them with ggplot2
…
We can extract the predicted values with predict_gam(). The predicted values of the outcome variable are in the column fit, while fit.se reports the standard error of the predicted values.

model_p <- predict_gam(model)
model_p
#> # A tibble: 150 x 4
#>    fac        x2     fit se.fit
#>    <fct>   <dbl>   <dbl>  <dbl>
#>  1 1     0.00134 -0.0223  0.669
#>  2 2     0.00134 -3.38    0.472
#>  3 3     0.00134 -1.05    0.973
#>  4 1     0.0217   0.425   0.524
#>  5 2     0.0217  -3.29    0.434
#>  6 3     0.0217  -0.123   0.732
#>  7 1     0.0421   0.859   0.425
#>  8 2     0.0421  -3.20    0.398
#>  9 3     0.0421   0.812   0.551
#> 10 1     0.0625   1.25    0.388
#> # … with 140 more rows
…
Let’s get the prediction dataframe and produce a contour plot. We can adjust labels and aesthetics using the usual ggplot2 methods.

model_2_p <- predict_gam(model_2)
model_2_p
#> # A tibble: 2,500 x 4
#>         x2      f1    fit se.fit
#>      <dbl>   <dbl>  <dbl>  <dbl>
#>  1 0.00134 0.00125 -1.21   0.656
#>  2 0.0217  0.00125 -1.13   0.636
#>  3 0.0421  0.00125 -1.05   0.616
#>  4 0.0625  0.00125 -0.975  0.597
#>  5 0.0829  0.00125 -0.898  0.578
#>  6 0.103   0.00125 -0.821  0.559
#>  7 0.124   0.00125 -0.744  0.540
#>  8 0.144   0.00125 -0.667  0.522
#>  9 0.164   0.00125 -0.590  0.504
#> 10 0.185   0.00125 -0.513  0.487
#> # … with 2,490 more rows
…
